date,sds011_DWT,sds018_LT,pms7003_VH,sps30_MD,sds021_LC
2021-11-24T18:00:00Z,1.1041176470588234,2.0191666666666666,7.020833333333333,2.6604166666666664,6.6345833333333335
2021-11-24T19:00:00Z,1.192608695652174,4.029583333333333,8.068181818181818,3.7158333333333333,8.077916666666667
2021-11-24T20:00:00Z,0.9486363636363636,2.23375,5.604166666666667,2.308333333333333,8.047916666666667
2021-11-24T21:00:00Z,0.8760869565217392,1.641304347826087,5.5625,2.0669565217391304,7.309130434782609
2021-11-24T22:00:00Z,0.74,1.0991666666666666,5.113636363636363,1.5725,6.699166666666667
2021-11-24T23:00:00Z,0.6173913043478261,0.9179166666666667,4.229166666666667,1.1595833333333334,6.792916666666667
2021-11-25T00:00:00Z,0.7626086956521739,1.31,5.068181818181818,1.5229166666666667,7.849583333333333
2021-11-25T01:00:00Z,0.9786956521739131,1.7366666666666666,6.479166666666667,2.1708333333333334,10.71125
2021-11-25T02:00:00Z,1.140952380952381,2.152083333333333,7.416666666666667,2.45,18.760833333333334
2021-11-25T03:00:00Z,1.1291304347826088,2.465,8.613636363636363,2.8975,20.374166666666667
2021-11-25T04:00:00Z,1.0891304347826087,2.484166666666667,8.75,2.93875,22.190833333333334
2021-11-25T05:00:00Z,1.0504347826086957,2.058333333333333,6.875,2.422083333333333,17.344583333333333
2021-11-25T06:00:00Z,1.0595652173913044,2.0320833333333335,6.886363636363637,2.517916666666667,14.767083333333334
2021-11-25T07:00:00Z,0.8508695652173913,1.4591666666666667,6.083333333333333,1.8016666666666667,21.991666666666667
2021-11-25T08:00:00Z,1.4186956521739131,3.1879166666666667,8.895833333333334,3.6858333333333335,26.09
2021-11-25T09:00:00Z,1.381304347826087,3.1595833333333334,8.931818181818182,3.7470833333333333,25.243333333333332
2021-11-25T10:00:00Z,1.7005000000000001,4.048,11.204545454545455,4.438,27.311904761904763
2021-11-25T11:00:00Z,1.5556521739130436,3.441,9.8125,4.141739130434782,13.221363636363636
2021-11-25T12:00:00Z,1.129,2.5855555555555556,8.972222222222221,3.5225,10.336666666666666
2021-11-25T13:00:00Z,1.1485714285714286,2.1818181818181817,9.275,3.5095652173913043,8.283478260869565
2021-11-25T14:00:00Z,0.8427272727272728,1.346086956521739,5.431818181818182,2.5495652173913044,7.132380952380952
2021-11-25T15:00:00Z,4.807727272727273,16.031739130434783,17.395833333333332,14.875217391304348,26.886521739130433
2021-11-25T16:00:00Z,18.251428571428573,42.028695652173916,76.8790909090909,51.30875,52.73391304347826
2021-11-25T17:00:00Z,1.0452380952380953,3.41,7.833333333333333,3.6472727272727274,9.022916666666667
2021-11-25T18:00:00Z,0.8122727272727273,1.1630434782608696,5.5,1.8591304347826088,4.713478260869565
2021-11-25T19:00:00Z,0.6691304347826087,1.06,5.5,1.6554166666666665,4.6674999999999995
2021-11-25T20:00:00Z,0.717391304347826,1.0708333333333333,5.3125,1.6695833333333334,5.022083333333334
2021-11-25T21:00:00Z,0.6954545454545454,1.0516666666666667,5.0227272727272725,1.6479166666666667,4.595833333333333
2021-11-25T22:00:00Z,0.6547826086956522,1.10625,5.333333333333333,1.6654166666666668,4.595
2021-11-25T23:00:00Z,1.0204347826086957,1.79375,6.833333333333333,2.2954166666666667,5.29375
2021-11-26T00:00:00Z,0.9595454545454546,1.7933333333333334,6.454545454545454,2.163333333333333,6.577083333333333
2021-11-26T01:00:00Z,1.8421739130434782,4.02375,11.875,4.336666666666667,10.977916666666667
2021-11-26T02:00:00Z,2.19,5.462916666666667,13.568181818181818,5.587916666666667,13.902083333333334
2021-11-26T03:00:00Z,2.2556521739130435,5.702916666666667,14.666666666666666,5.900833333333333,13.727916666666667
2021-11-26T04:00:00Z,1.6952173913043478,4.257916666666667,10.979166666666666,4.485833333333333,11.8025
2021-11-26T05:00:00Z,1.4795652173913043,3.757083333333333,9.409090909090908,4.038333333333333,21.17875
2021-11-26T06:00:00Z,1.2530434782608695,3.1133333333333333,7.916666666666667,3.19875,18.139583333333334
2021-11-26T07:00:00Z,0.93565217391304345,1.8529166666666668,6.25,2.515416666666667,25.620833333333334
2021-11-26T08:00:00Z,1.0613043478260868,2.486666666666667,6.875,2.9895833333333335,30.55125
2021-11-26T09:00:00Z,1.5321739130434784,4.237916666666667,10.136363636363637,4.642916666666666,23.378333333333334
2021-11-26T10:00:00Z,2.796818181818182,8.44,18.7,9.583478260869565,34.36545454545455
2021-11-26T11:00:00Z,1.143181818181818,2.968695652173913,6.95,3.369565217391304,14.092380952380953
2021-11-26T12:00:00Z,0.5540909090909091,0.832,4.2,1.2980952380952382,6.722631578947368
2021-11-26T13:00:00Z,0.6318181818181818,1.0972727272727274,4.895833333333333,1.6569565217391304,6.540869565217392
2021-11-26T14:00:00Z,0.7939130434782609,1.0452380952380953,4.909090909090909,1.7019047619047618,5.940454545454545
2021-11-26T15:00:00Z,0.7039130434782609,1.0558333333333334,5.083333333333333,1.6182608695652174,4.44625
2021-11-26T16:00:00Z,0.589047619047619,0.7604347826086957,4.025,1.3882608695652174,4.221739130434782
2021-11-26T17:00:00Z,0.6385714285714286,0.8856521739130435,4.020833333333333,1.5621739130434782,3.8221739130434784
2021-11-26T18:00:00Z,0.558695652173913,0.8841666666666667,3.7916666666666665,1.5541666666666667,3.87125
2021-11-26T19:00:00Z,0.6304545454545455,0.8125,3.5,1.3670833333333334,3.942083333333333
2021-11-26T20:00:00Z,0.5295652173913044,0.6295833333333334,3.3333333333333335,1.19125,3.3879166666666665
2021-11-26T21:00:00Z,0.5382608695652173,0.7017391304347826,3.477272727272727,1.2443478260869565,3.2130434782608694
2021-11-26T22:00:00Z,0.5172727272727273,0.6795833333333333,3.2708333333333335,1.0183333333333333,3.1975
2021-11-26T23:00:00Z,0.9234782608695652,2.256086956521739,6.083333333333333,2.19,5.993043478260869
2021-11-27T00:00:00Z,1.9452173913043478,4.74625,11.840909090909092,4.539583333333334,9.675833333333333
2021-11-27T01:00:00Z,1.7669565217391303,4.004166666666666,10.479166666666666,4.31875,9.361739130434783
2021-11-27T02:00:00Z,3.017272727272727,7.479166666666667,17.113636363636363,7.631666666666667,17.059583333333332
2021-11-27T03:00:00Z,3.4656521739130435,8.897916666666667,21.145833333333332,9.169166666666667,19.301666666666666
2021-11-27T04:00:00Z,1.8069565217391304,4.3025,11,4.86125,14.31625
2021-11-27T05:00:00Z,1.4572727272727273,3.7583333333333333,9.931818181818182,4.267391304347826,15.577916666666667
2021-11-27T06:00:00Z,1.1243478260869566,2.391304347826087,6.333333333333333,3.0425,17.089565217391304
2021-11-27T07:00:00Z,0.4991304347826087,1.0716666666666668,4.020833333333333,1.4221739130434783,12.262916666666667
2021-11-27T08:00:00Z,0.48130434782608694,0.9,3.409090909090909,1.1579166666666667,7.90695652173913
2021-11-27T09:00:00Z,0.3773913043478261,0.7456521739130435,2.8125,1.0569565217391304,8.519583333333333
2021-11-27T10:00:00Z,0.3981818181818182,0.5868181818181818,2.9583333333333335,0.821304347826087,8.775555555555556
2021-11-27T11:00:00Z,0.5166666666666667,0.9004347826086957,3.525,1.0904761904761904,6.505909090909091
2021-11-27T12:00:00Z,0.44823529411764707,0.9545454545454546,3.7045454545454546,1.0616666666666668,6.736153846153846
2021-11-27T13:00:00Z,0.48782608695652174,0.7244444444444444,3.5681818181818183,0.9968421052631579,4.912
2021-11-27T14:00:00Z,0.3882608695652174,0.5845,3.5,0.8422222222222222,5.378636363636364
2021-11-27T15:00:00Z,0.40454545454545454,0.8158333333333333,3.7045454545454546,0.9283333333333333,5.77695652173913
2021-11-27T16:00:00Z,0.5917391304347825,1.1783333333333332,4.125,1.3029166666666667,9.65
2021-11-27T17:00:00Z,0.7127272727272728,1.5766666666666667,5,1.6570833333333332,10.0775
2021-11-27T18:00:00Z,0.4960869565217391,0.9030434782608696,3.6875,1.0275,15.224583333333333
2021-11-27T19:00:00Z,0.7472727272727273,1.1920833333333334,4.125,1.3358333333333334,9.91625
2021-11-27T20:00:00Z,0.8291304347826087,1.82125,5.681818181818182,1.94375,14.8525
2021-11-27T21:00:00Z,1.2908695652173914,2.8654166666666665,8.229166666666666,3.564166666666667,10.6925
2021-11-27T22:00:00Z,0.6590909090909091,1.0704166666666666,4.2272727272727275,1.32375,10.739583333333334
2021-11-27T23:00:00Z,0.9,3.0339130434782606,6.541666666666667,1.838695652173913,32.39869565217391
2021-11-28T00:00:00Z,0.9977777777777778,2.1731818181818183,6.375,1.6931818181818181,49.66136363636364
2021-11-28T01:00:00Z,1.2373913043478262,3.1934782608695653,7.613636363636363,2.099565217391304,38.96260869565217
2021-11-28T02:00:00Z,1.36,3.4520833333333334,8.045454545454545,1.91625,46.884166666666665
2021-11-28T03:00:00Z,1.06,2.196875,7.071428571428571,1.77375,52.090625
2021-11-28T04:00:00Z,3.3018181818181818,9.795833333333334,17.541666666666668,9.37125,50.06041666666667
2021-11-28T05:00:00Z,0.5,0.7529411764705882,4.055555555555555,0.8881249999999999,33.02
2021-11-28T06:00:00Z,0.5254545454545455,0.7595652173913043,4.291666666666667,0.7860869565217391,31.34125
2021-11-28T07:00:00Z,0.5330434782608695,0.8120833333333334,4.568181818181818,0.88,29.55708333333333
2021-11-28T08:00:00Z,0.6769565217391305,1.0708333333333333,5,1.10375,32.63125
2021-11-28T09:00:00Z,1.663181818181818,4.397083333333334,8.8125,3.822608695652174,32.71826086956522
2021-11-28T10:00:00Z,0.7235,1.3047368421052632,5.045454545454546,1.4241666666666666,17.844285714285714
2021-11-28T11:00:00Z,0.687,1.2395454545454545,5.05,1.4652631578947368,24.686190476190475
2021-11-28T12:00:00Z,0.42444444444444446,0.4388888888888889,3.65,0.82,15.655
2021-11-28T13:00:00Z,0.5314285714285715,0.5,3.775,1.1566666666666667,11.402631578947368
2021-11-28T14:00:00Z,0.56434782608695655,0.6507142857142857,4.285714285714286,1.32,9.9145
2021-11-28T15:00:00Z,0.6817391304347826,1.0570833333333334,5.166666666666667,1.9073913043478261,8.365217391304348
2021-11-28T16:00:00Z,0.9265217391304348,1.39875,6.25,2.4725,6.984166666666667
2021-11-28T17:00:00Z,1.2134782608695651,1.8641666666666667,7.770833333333333,3.1520833333333336,10.69875
2021-11-28T18:00:00Z,1.1418181818181818,1.7154166666666666,6.75,2.8533333333333335,9.285833333333333
2021-11-28T19:00:00Z,0.9504347826086956,1.40625,6.270833333333333,2.43875,10.930833333333334
2021-11-28T20:00:00Z,0.7177272727272728,0.91625,5.25,1.76375,7.88625
2021-11-28T21:00:00Z,0.7160869565217391,0.985,5.2272727272727275,1.78,7.9558333333333335
2021-11-28T22:00:00Z,0.7668181818181818,1.11625,6.041666666666667,2.0320833333333335,8.112083333333333
2021-11-28T23:00:00Z,0.9717391304347825,1.8404347826086958,7.568181818181818,2.6241666666666665,9.225833333333334
2021-11-29T00:00:00Z,1.8218181818181818,3.922083333333333,12.25,4.47125,15.405
2021-11-29T01:00:00Z,2.609090909090909,6.1325,16.708333333333332,7.132083333333333,19.985
2021-11-29T02:00:00Z,1.9882608695652173,4.627083333333333,14.272727272727273,5.699583333333333,27.566666666666666
2021-11-29T03:00:00Z,1.2677272727272728,2.48375,8.4375,3.1395833333333334,28.789166666666667
2021-11-29T04:00:00Z,1.0778260869565217,2.1254166666666667,7.5,2.63875,31.050416666666667
2021-11-29T05:00:00Z,0.9847826086956522,2.077916666666667,7.708333333333333,2.611666666666667,37.32958333333333
2021-11-29T06:00:00Z,0.9882608695652174,1.8608333333333333,7.125,2.3183333333333334,37.27041666666667
2021-11-29T07:00:00Z,0.9765217391304348,1.88,7.5,2.42125,33.435833333333335
2021-11-29T08:00:00Z,0.8504347826086956,1.4320833333333334,6.729166666666667,2.13125,39.42958333333333
2021-11-29T09:00:00Z,1.1243478260869566,2.518333333333333,7.958333333333333,2.68,43.904583333333335
2021-11-29T10:00:00Z,5.2315,18.333636363636362,31.295454545454547,19.432380952380953,73.95636363636363
2021-11-29T11:00:00Z,1.0585,3.0673913043478263,9.104166666666666,3.431304347826087,22.132173913043477
2021-11-29T12:00:00Z,0.7052631578947368,1.2158823529411764,4.795454545454546,1.5833333333333333,9.787777777777778
2021-11-29T13:00:00Z,0.8345454545454546,1.4594736842105263,5.931818181818182,2.2666666666666666,9.301
2021-11-29T14:00:00Z,0.5313636363636364,0.62,4.083333333333333,1.250952380952381,5.947727272727272
2021-11-29T15:00:00Z,0.48863636363636365,0.7353333333333334,4.181818181818182,1.3341176470588234,6.840526315789473
2021-11-29T16:00:00Z,0.5745454545454546,0.8234782608695652,4.729166666666667,1.583913043478261,6.528333333333333
2021-11-29T17:00:00Z,0.42478260869565215,0.51875,3.6363636363636362,0.9775,9.318695652173913
2021-11-29T18:00:00Z,0.42478260869565215,0.54,3.9583333333333335,1.0391666666666666,9.790416666666667
2021-11-29T19:00:00Z,0.42045454545454547,0.4083333333333333,3.625,0.985,6.147083333333334
2021-11-29T20:00:00Z,0.3981818181818182,0.5083333333333333,3.7954545454545454,0.8945833333333333,5.493333333333333
2021-11-29T21:00:00Z,0.37956521739130433,0.4973913043478261,3.5625,0.9378260869565217,4.046086956521739
2021-11-29T22:00:00Z,0.5361904761904762,0.7920833333333334,3.9318181818181817,1.08375,5.942916666666667
2021-11-29T23:00:00Z,0.6591304347826087,1.0254166666666666,4.729166666666667,1.2579166666666666,7.15625
2021-11-30T00:00:00Z,1.3495454545454546,3.1733333333333333,8.75,3.087083333333333,12.340416666666666
2021-11-30T01:00:00Z,1.8531818181818183,4.378260869565217,11.791666666666666,4.603478260869565,20.46217391304348
2021-11-30T02:00:00Z,1.8121739130434782,4.357916666666667,11.363636363636363,4.642916666666666,22.769166666666667
2021-11-30T03:00:00Z,1.1418181818181818,2.243478260869565,8,2.764782608695652,20.165652173913042
2021-11-30T04:00:00Z,0.8626086956521739,1.5966666666666667,6.068181818181818,2.0825,18.585
2021-11-30T05:00:00Z,0.7969565217391305,1.6541666666666666,5.291666666666667,2.0716666666666668,18.44375
2021-11-30T06:00:00Z,0.37,0.5983333333333334,3.2083333333333335,0.8420833333333333,13.64375
2021-11-30T07:00:00Z,0.71,1.4070833333333335,4.636363636363637,1.4854166666666666,16.165416666666665
2021-11-30T08:00:00Z,3.1360869565217393,8.867916666666666,17.625,9.52625,29.312916666666666
2021-11-30T09:00:00Z,4.27695652173913,12.938333333333334,23.645833333333332,14.192916666666667,32.495416666666664
2021-11-30T10:00:00Z,0.8440909090909091,1.4980952380952381,4.875,2.1861904761904762,17.910454545454545
2021-11-30T11:00:00Z,0.4131818181818182,0.5638888888888889,3.727272727272727,0.881,8.302105263157895
2021-11-30T12:00:00Z,0.36133333333333334,0.6711764705882353,3.85,0.849,7.51
2021-11-30T13:00:00Z,0.4217391304347826,0.5321739130434783,3.409090909090909,0.83375,5.554090909090909
2021-11-30T14:00:00Z,0.3335,0.48083333333333333,3.7708333333333335,0.7377272727272727,13.61125
2021-11-30T15:00:00Z,0.33217391304347826,0.5778260869565217,2.7291666666666665,0.7340909090909091,20.615
2021-11-30T16:00:00Z,0.34863636363636363,0.48541666666666666,3.3636363636363638,0.7521739130434782,23.3025
2021-11-30T17:00:00Z,0.36782608695652175,0.43625,2.9166666666666665,0.7716666666666667,18.957916666666666
2021-11-30T18:00:00Z,0.3517391304347826,0.4025,2.7291666666666665,0.8016666666666666,2.65375
2021-11-30T19:00:00Z,0.34,0.43875,2.909090909090909,0.8058333333333333,2.8033333333333332
2021-11-30T20:00:00Z,0.3613636363636364,0.3943478260869565,2.8333333333333335,0.7991304347826087,3.479565217391304
2021-11-30T21:00:00Z,0.9885714285714285,4.0275,5,5.279583333333333,11.229583333333334
2021-11-30T22:00:00Z,0.5609090909090909,1.37375,3.3958333333333335,2.185,7.866666666666667
2021-11-30T23:00:00Z,0.4363636363636364,0.8291666666666667,3.25,1.2529166666666667,8.2091666666666665
2021-12-01T00:00:00Z,0.6317391304347826,1.0183333333333333,3.7045454545454546,1.3266666666666667,11.848333333333333
2021-12-01T01:00:00Z,1.0668181818181819,2.0478260869565217,6.083333333333333,2.292608695652174,19.778695652173912
2021-12-01T02:00:00Z,0.9152173913043478,1.6682608695652175,5.454545454545454,1.8225,15.642916666666666
2021-12-01T03:00:00Z,0.6634782608695652,1.3654166666666667,4.3125,1.4620833333333334,13.599166666666667
2021-12-01T04:00:00Z,1.2860869565217392,2.8316666666666666,7.75,3.4,16.394166666666667
2021-12-01T05:00:00Z,0.8756521739130435,1.7816666666666667,5.666666666666667,2.1416666666666666,21.925
2021-12-01T06:00:00Z,1.1865217391304348,2.8720833333333333,7.395833333333333,3.3408333333333333,21.685833333333335
2021-12-01T07:00:00Z,0.9443478260869566,2.0570833333333334,6.166666666666667,2.4895833333333335,27.620833333333334
2021-12-01T08:00:00Z,0.6152173913043478,1.0004166666666667,3.8863636363636362,1.31375,28.837916666666665
2021-12-01T09:00:00Z,0.6639130434782609,1.12125,4.770833333333333,1.3579166666666667,25.880416666666665
2021-12-01T10:00:00Z,0.5381818181818182,0.805,3.9318181818181817,0.9216666666666666,20.1
2021-12-01T11:00:00Z,1.029,2.07,6.090909090909091,2.55,15.60909090909091
2021-12-01T12:00:00Z,1.3525,3.1461111111111113,9.666666666666666,3.76,13.868
2021-12-01T13:00:00Z,1.215,2.425,7.861111111111111,3.2720000000000002,9.511764705882353
2021-12-01T14:00:00Z,1.1371428571428572,2.0977272727272727,7.636363636363637,3.074,10.521428571428572
2021-12-01T15:00:00Z,0.8476190476190476,1.2863636363636364,5.931818181818182,2.1954545454545453,11.286818181818182
2021-12-01T16:00:00Z,0.7368181818181818,1.143913043478261,5.454545454545454,1.8483333333333334,8.3
2021-12-01T17:00:00Z,0.837391304347826,1.131304347826087,6.4375,2.2025,7.038333333333333
2021-12-01T18:00:00Z,0.6477272727272727,0.9470833333333334,4.409090909090909,1.4433333333333334,5.141666666666667
2021-12-01T19:00:00Z,0.5604545454545454,0.8779166666666667,4.166666666666667,1.2520833333333334,5.3275
2021-12-01T20:00:00Z,0.5777272727272728,0.9773913043478261,4.454545454545454,1.291304347826087,4.885652173913043
2021-12-01T21:00:00Z,0.6263636363636363,1.0156521739130435,4.5,1.33,4.97
2021-12-01T22:00:00Z,0.6173913043478261,0.8883333333333333,4.909090909090909,1.3786363636363637,5.382083333333333
2021-12-01T23:00:00Z,0.9018181818181819,1.4756521739130435,6.166666666666667,1.8620833333333333,6.148695652173913
2021-12-02T00:00:00Z,0.9956521739130435,1.93625,6.795454545454546,2.2417391304347825,6.722173913043479
2021-12-02T01:00:00Z,0.7968181818181818,1.343913043478261,5.295454545454546,1.9382608695652173,7.071739130434783
2021-12-02T02:00:00Z,0.6408695652173912,0.7558333333333334,4.25,1.3258333333333334,6.4070833333333335
2021-12-02T03:00:00Z,0.6713636363636364,0.7672727272727272,4.659090909090909,1.2743478260869565,6.485652173913043
2021-12-02T04:00:00Z,0.6730434782608695,0.87875,4.666666666666667,1.3775,9.99625
2021-12-02T05:00:00Z,0.9321739130434783,1.6475,6.181818181818182,2.195,13.848333333333333
2021-12-02T06:00:00Z,1.1617391304347826,2.0225,8.0625,2.814583333333333,13.47375
2021-12-02T07:00:00Z,0.7130434782608696,0.9791666666666667,4.583333333333333,1.4725,14.4825
2021-12-02T08:00:00Z,0.5734782608695652,0.8416666666666667,4,1.2441666666666666,12.665416666666667
2021-12-02T09:00:00Z,0.5752173913043478,0.91125,4.125,1.1945833333333333,15.420833333333334
2021-12-02T10:00:00Z,0.6085714285714285,0.953,4.270833333333333,1.2852380952380953,15.6145
2021-12-02T11:00:00Z,0.5904347826086956,0.89,3.775,1.2182608695652175,10.85
2021-12-02T12:00:00Z,0.708421052631579,1.050952380952381,4.725,1.4665,9.051875
2021-12-02T13:00:00Z,0.772,1.168235294117647,5.138888888888889,1.8463157894736841,7.0194117647058825
2021-12-02T14:00:00Z,0.9252380952380952,1.3843478260869566,5.833333333333333,2.2394444444444446,7.131818181818182
2021-12-02T15:00:00Z,1.0139130434782608,1.6655,6.104166666666667,2.3434782608695652,7.338095238095238
2021-12-02T16:00:00Z,0.8180952380952381,1.0452173913043479,5.7272727272727275,1.8808695652173912,6.550952380952381
2021-12-02T17:00:00Z,0.7869565217391304,1.1091666666666666,5.458333333333333,1.9179166666666667,6.417083333333333
2021-12-02T18:00:00Z,0.93565217391304345,1.2245833333333334,5.545454545454546,2.12875,6.6883333333333335
2021-12-02T19:00:00Z,0.8615789473684211,1.1365,5.277777777777778,1.9435,6.6525
2021-11-18T18:00:00Z,NA,0.9042857142857142,3.6875,1.1425,3.357142857142857
2021-11-18T19:00:00Z,NA,0.8330434782608696,3.8333333333333335,1.1345454545454545,3.7868181818181816
2021-11-18T20:00:00Z,NA,0.8141666666666667,4.068181818181818,1.1954166666666666,4.254583333333334
2021-11-18T21:00:00Z,NA,0.8473913043478261,3.7916666666666665,1.0263636363636364,3.946521739130435
2021-11-18T22:00:00Z,NA,0.7145833333333333,4,1.0133333333333334,4.800833333333333
2021-11-18T23:00:00Z,NA,4.360869565217391,9.645833333333334,3.7221739130434783,9.282608695652174
2021-11-19T00:00:00Z,NA,5.434166666666667,11.022727272727273,5.425833333333333,12.5625
2021-11-19T01:00:00Z,NA,1.1722727272727274,4.604166666666667,1.7195238095238095,7.781363636363636
2021-11-19T02:00:00Z,NA,0.34750000000000003,2.725,0.5385714285714286,6.7942857142857145
2021-11-19T03:00:00Z,NA,0.33608695652173914,2.8181818181818183,0.47391304347826085,7.715217391304348
2021-11-19T04:00:00Z,NA,1.0826086956521739,4.833333333333333,1.6504166666666666,12.769130434782609
2021-11-19T05:00:00Z,NA,0.3620833333333333,2.6458333333333335,0.5395652173913044,16.105652173913043
2021-11-19T06:00:00Z,NA,3.8578260869565217,8.909090909090908,4.85304347826087,26.13869565217391
2021-11-19T07:00:00Z,NA,3.550869565217391,9.083333333333334,4.8960869565217395,38.85458333333333
2021-11-19T08:00:00Z,NA,4.185,8.659090909090908,4.8879166666666665,33.26304347826087
2021-11-19T09:00:00Z,NA,4.902142857142858,10.86111111111111,5.819473684210526,30.835555555555555
2021-11-19T10:00:00Z,NA,4.207777777777777,8.75,4.808,30.88
2021-11-19T11:00:00Z,NA,4.49125,8.45,6.066470588235294,19.36857142857143
2021-11-19T12:00:00Z,NA,0.658,3,0.7233333333333334,9.031666666666666
2021-11-19T13:00:00Z,NA,0.41100000000000003,2.9642857142857144,0.6345454545454545,5.876153846153846
2021-11-19T14:00:00Z,NA,1.16,2.8125,0.4722222222222222,4.710555555555556
2021-11-19T15:00:00Z,NA,0.49375,3.1785714285714284,0.5933333333333333,3.5571428571428574
2021-11-19T16:00:00Z,NA,1.3577777777777778,5.2,1.794,5.5775
2021-11-19T17:00:00Z,NA,0.9329166666666667,4.125,1.18375,4.469565217391304
2021-11-19T18:00:00Z,NA,1.097391304347826,3.6818181818181817,1.3547826086956523,4.595217391304348
2021-11-19T19:00:00Z,NA,0.9634782608695652,4.0625,1.27125,4.547083333333333
2021-11-19T20:00:00Z,NA,0.8591666666666666,4.181818181818182,1.0833333333333333,4.564782608695652
2021-11-19T21:00:00Z,NA,0.7778260869565218,4.166666666666667,1.0334782608695652,4.321304347826087
2021-11-19T22:00:00Z,NA,0.9343478260869565,4.159090909090909,1.0686363636363636,5.601304347826087
2021-11-19T23:00:00Z,NA,2.55,7.045454545454546,2.436818181818182,7.335454545454546
2021-11-20T00:00:00Z,NA,2.6982608695652175,7.181818181818182,2.920434782608696,8.14
2021-11-20T01:00:00Z,NA,3.2785714285714285,9.75,3.3705,8.801904761904762
2021-11-20T02:00:00Z,NA,4.178823529411765,10.194444444444445,4.590625,11.202631578947368
2021-11-20T03:00:00Z,NA,5.0475,13.479166666666666,4.958260869565217,15.8675
2021-11-20T04:00:00Z,NA,7.2325,15.954545454545455,6.8928,18.235833333333332
2021-11-20T05:00:00Z,NA,7.022083333333333,14.979166666666666,6.604166666666667,17.81458333333333
2021-11-20T06:00:00Z,NA,3.27375,9.25,3.597916666666667,18.800833333333333
2021-11-20T07:00:00Z,NA,1.7534782608695652,6.1,2.1826086956521737,22.702608695652174
2021-11-20T08:00:00Z,NA,6.5754166666666665,14.125,7.172083333333333,23.050833333333333
2021-11-20T09:00:00Z,NA,2.2871428571428574,6.931818181818182,2.92,18.818
2021-11-20T10:00:00Z,NA,1.1785714285714286,4.708333333333333,1.5354545454545454,15.586428571428572
2021-11-20T11:00:00Z,NA,1.2222222222222223,4.78125,1.4627272727272727,10.935555555555556
2021-11-20T12:00:00Z,NA,1.064,4.75,1.4123076923076923,8.146
2021-11-20T13:00:00Z,NA,0.896875,4.7272727272727275,1.3785,5.1575
2021-11-20T14:00:00Z,NA,0.9985714285714286,4.3,1.4213636363636364,4.806363636363637
2021-11-20T15:00:00Z,NA,1.1975,4.416666666666667,1.6066666666666667,4.405
2021-11-20T16:00:00Z,NA,1.2208333333333334,4.545454545454546,1.8025,4.625217391304348
2021-11-20T17:00:00Z,NA,1.3266666666666667,4.979166666666667,2.069583333333333,4.906521739130435
2021-11-20T18:00:00Z,NA,1.12375,4.541666666666667,1.7433333333333334,4.0225
2021-11-20T19:00:00Z,NA,1.05,3.8181818181818183,1.5329166666666667,4.31625
2021-11-20T20:00:00Z,NA,0.9450000000000001,3.75,1.4525,4.725833333333333
2021-11-20T21:00:00Z,NA,1.0470833333333334,4.045454545454546,1.5104166666666667,4.3975
2021-11-20T22:00:00Z,NA,1.045,4.416666666666667,1.4416666666666667,4.204583333333333
2021-11-20T23:00:00Z,NA,2.034782608695652,6.104166666666667,2.123913043478261,6.1521739130434785
2021-11-21T00:00:00Z,NA,5.11125,13.340909090909092,5.01,11.756666666666666
2021-11-21T01:00:00Z,NA,11.459166666666667,25.229166666666668,10.56375,21.402916666666666
2021-11-21T02:00:00Z,NA,10.573333333333334,24.645833333333332,10.35125,22.107083333333332
2021-11-21T03:00:00Z,NA,8.599583333333333,21.15909090909091,9.019545454545455,21.32208333333333
2021-11-21T04:00:00Z,NA,7.639583333333333,20.041666666666668,8.217916666666667,19.715416666666666
2021-11-21T05:00:00Z,NA,3.7954166666666667,11.295454545454545,4.470833333333333,15.475
2021-11-21T06:00:00Z,NA,9.599583333333333,21.770833333333332,11.561666666666666,27.210833333333333
2021-11-21T07:00:00Z,NA,8.159166666666666,19.479166666666668,9.633478260869564,19.150833333333335
2021-11-21T08:00:00Z,NA,1.3845833333333333,5.318181818181818,1.7279166666666665,12.872083333333332
2021-11-21T09:00:00Z,NA,1.4875,5.520833333333333,1.6141666666666667,14.570833333333333
2021-11-21T10:00:00Z,NA,2.388333333333333,7.15,3.165,14.749285714285714
2021-11-21T11:00:00Z,NA,2.361304347826087,7.363636363636363,2.656,11.875454545454545
2021-11-21T12:00:00Z,NA,0.7353333333333333,3.975,1.1376923076923078,6.746315789473685
2021-11-21T13:00:00Z,NA,0.7286956521739131,3.3333333333333335,1.1752173913043478,5.013478260869565
2021-11-21T14:00:00Z,NA,0.7352173913043478,3.159090909090909,1.1165,4.214583333333334
2021-11-21T15:00:00Z,NA,0.9275,4.318181818181818,1.48125,3.9425
2021-11-21T16:00:00Z,NA,1.2116666666666667,4.75,1.8404166666666666,4.538333333333333
2021-11-21T17:00:00Z,NA,1.7626086956521738,6.208333333333333,2.557826086956522,4.1060869565217395
2021-11-21T18:00:00Z,NA,1.5941666666666667,6.068181818181818,2.4716666666666667,4.020833333333333
2021-11-21T19:00:00Z,NA,1.2237500000000001,5.104166666666667,1.9120833333333334,3.263333333333333
2021-11-21T20:00:00Z,NA,0.9941666666666666,4.431818181818182,1.4583333333333333,2.94375
2021-11-21T21:00:00Z,NA,0.9291666666666667,3.8541666666666665,1.48375,2.7908333333333335
2021-11-21T22:00:00Z,NA,1.1079166666666667,4.395833333333333,1.5329166666666667,3.189583333333333
2021-11-21T23:00:00Z,NA,2.9929166666666664,7.886363636363637,2.81125,5.730833333333333
2021-11-22T00:00:00Z,NA,8.085,19.770833333333332,7.662083333333333,13.870416666666667
2021-11-22T01:00:00Z,NA,3.8741666666666665,11.295454545454545,4.08875,7.925416666666667
2021-11-22T02:00:00Z,NA,1.0766666666666667,4.8125,1.3279166666666666,3.9233333333333333
2021-11-22T03:00:00Z,NA,3.025,8.666666666666666,3.5929166666666665,6.2004166666666665
2021-11-22T04:00:00Z,NA,2.255,7.045454545454546,2.58,7.61625
2021-11-22T05:00:00Z,NA,1.8975,6.354166666666667,2.14875,10.439583333333333
2021-11-22T06:00:00Z,NA,1.8645833333333333,5.954545454545454,2.149583333333333,11.757916666666667
2021-11-22T07:00:00Z,NA,5.077916666666667,11.25,5.312083333333334,17.662916666666668
2021-11-22T08:00:00Z,NA,12.35,23.1875,13.900416666666667,30.777916666666666
2021-11-22T09:00:00Z,NA,1.1833333333333333,4.5227272727272725,1.6166666666666667,11.283333333333333
2021-11-22T10:00:00Z,NA,2.249090909090909,6.791666666666667,2.879,7.9363636363636365
2021-11-22T11:00:00Z,NA,0.7522222222222222,3.575,0.9552380952380952,4.015
2021-11-22T12:00:00Z,NA,0.747,3.1875,0.852,4.834
2021-11-22T13:00:00Z,NA,0.3765217391304348,2.8181818181818183,0.6275,3.236521739130435
2021-11-22T14:00:00Z,NA,0.45304347826086955,2.6666666666666665,0.7104347826086956,2.2818181818181817
2021-11-22T15:00:00Z,NA,0.4091304347826087,2.25,0.7439130434782609,2.034782608695652
2021-11-22T16:00:00Z,NA,0.6470833333333333,2.6875,0.7983333333333333,2.2158333333333333
2021-11-22T17:00:00Z,NA,0.6654166666666667,2.840909090909091,0.8391666666666666,2.17625
2021-11-22T18:00:00Z,NA,0.43043478260869567,2.25,0.7016666666666667,2.2216666666666667
2021-11-22T19:00:00Z,NA,0.34291666666666665,2.3863636363636362,0.6854166666666667,2.3720833333333333
2021-11-22T20:00:00Z,NA,0.36541666666666667,2.5208333333333335,0.7391666666666666,2.6145833333333335
2021-11-22T21:00:00Z,NA,0.45916666666666667,2.125,0.7620833333333333,2.7604166666666665
2021-11-22T22:00:00Z,NA,0.6933333333333334,3.2045454545454546,1.0370833333333334,3.7445833333333334
2021-11-22T23:00:00Z,NA,1.6425,5.770833333333333,1.7595833333333333,5.3654166666666665
2021-11-23T00:00:00Z,NA,2.9029166666666666,7.386363636363637,2.763333333333333,7.815416666666667
2021-11-23T01:00:00Z,NA,2.8895833333333334,6.625,3.109583333333333,8.157916666666667
2021-11-23T02:00:00Z,NA,1.5145833333333334,5.9375,1.9491666666666667,6.71375
2021-11-23T03:00:00Z,NA,1.0975,4.659090909090909,1.42125,7.395833333333333
2021-11-23T04:00:00Z,NA,1.4058333333333333,4.666666666666667,1.7091666666666667,7.4245833333333335
2021-11-23T05:00:00Z,NA,1.5520833333333333,4.386363636363637,1.7675,9.308333333333334
2021-11-23T06:00:00Z,NA,0.71,3.5833333333333335,0.9533333333333334,9.545833333333333
2021-11-23T07:00:00Z,NA,1.23625,4.666666666666667,1.4525,12.890416666666667
2021-11-23T08:00:00Z,NA,2.70625,7.208333333333333,3.5175,14.287083333333333
2021-11-23T09:00:00Z,NA,3.3695833333333334,8.522727272727273,3.82875,13.51375
2021-11-23T10:00:00Z,NA,5.567619047619048,13.3125,6.268636363636364,17.833809523809524
2021-11-23T11:00:00Z,NA,1.6605882352941177,5.1875,1.9872222222222222,7.772666666666667
2021-11-23T12:00:00Z,NA,0.7245,3.25,0.7738095238095238,4.216
2021-11-23T13:00:00Z,NA,0.6688888888888889,3.2916666666666665,0.8309090909090909,4.185909090909091
2021-11-23T14:00:00Z,NA,0.7447368421052631,3.775,1.078,3.3675
2021-11-23T15:00:00Z,NA,1.23875,5.204545454545454,1.9958333333333333,4.044583333333334
2021-11-23T16:00:00Z,NA,1.5004347826086957,5.458333333333333,2.1530434782608694,4.243913043478261
2021-11-23T17:00:00Z,NA,1.3916666666666666,4.75,1.9525,4.291304347826087
2021-11-23T18:00:00Z,NA,1.0143478260869565,3.9791666666666665,1.3126086956521739,3.38875
2021-11-23T19:00:00Z,NA,0.985,3.6875,1.3691666666666666,3.3120833333333333
2021-11-23T20:00:00Z,NA,1.0920833333333333,4,1.5241666666666667,3.21
2021-11-23T21:00:00Z,NA,1.2917391304347825,4.270833333333333,1.681304347826087,3.340869565217391
2021-11-23T22:00:00Z,NA,1.31375,4.354166666666667,1.58375,4.10875
2021-11-23T23:00:00Z,NA,1.69875,5.5,2.07375,5.02
2021-11-24T00:00:00Z,NA,2.29,7.020833333333333,2.68125,5.948333333333333
2021-11-24T01:00:00Z,NA,2.56125,7.090909090909091,3.045,6.065416666666667
2021-11-24T02:00:00Z,NA,2.375,7.854166666666667,3.03125,5.786666666666667
2021-11-24T03:00:00Z,NA,3.1778260869565216,10.375,4.38625,8.599166666666667
2021-11-24T04:00:00Z,NA,3.65625,11.636363636363637,5.16625,10.318333333333333
2021-11-24T05:00:00Z,NA,1.9875,7.458333333333333,3.0729166666666665,7.18375
2021-11-24T06:00:00Z,NA,1.8675,7.145833333333333,2.6791666666666667,8.349166666666667
2021-11-24T07:00:00Z,NA,2.2554166666666666,8.431818181818182,2.839166666666667,8.823333333333334
2021-11-24T08:00:00Z,NA,2.5458333333333334,9.166666666666666,3.1175,8.577916666666667
2021-11-24T09:00:00Z,NA,3.180833333333333,9.708333333333334,3.63,12.976666666666667
2021-11-24T10:00:00Z,NA,7.213333333333333,18.55,7.571428571428571,20.147894736842105
2021-11-24T11:00:00Z,NA,2.7390909090909092,8.522727272727273,3.3330434782608696,9.115833333333333
2021-11-24T12:00:00Z,NA,2.8375,9.055555555555555,3.5757142857142856,9.054210526315789
2021-11-24T13:00:00Z,NA,2.085,8.068181818181818,3.0495238095238095,6.757
2021-11-24T14:00:00Z,NA,1.8752173913043477,7.9375,2.968095238095238,5.9308695652173915
2021-11-24T15:00:00Z,NA,2.4266666666666667,9.375,3.6233333333333335,5.902222222222222
2021-11-24T16:00:00Z,NA,2.5242105263157897,10.25,4.052222222222222,7.984736842105263
2021-11-24T17:00:00Z,NA,2.1916666666666664,7.395833333333333,2.992916666666667,8.384166666666667
